***********************************************************************
*
*   Copyright (c) 2018 by Modern Systems, Inc.
*   All rights reserved.
*
***********************************************************************
*   [PRODUCT_NAME] - v. [PRODUCT_VERSION]
***********************************************************************
*   Date: 2018/2020
***********************************************************************
*
*   Description: [DESCRIPTION]
*
***********************************************************************